{
    "content": [
        {
            "id": 1,
            "title": "Pothole on Main Street",
            "content": "Large pothole near intersection",
            "media_urls": [
                "https://example.com/pothole.jpg"
            ],
            "vote_count": 25,
            "status": "PENDING",
            "created_at": "2024-01-15T10:30:00Z",
            "has_user_voted": false,
            "can_user_vote": true,
            "username": "citizen1"
        },
        {
            "id": 2,
            "title": "Broken streetlight",
            "content": "Streetlight not working for 2 weeks",
            "media_urls": [],
            "vote_count": 15,
            "status": "OPEN",
            "created_at": "2024-01-14T09:00:00Z",
            "has_user_voted": true,
            "can_user_vote": true,
            "username": "resident42"
        },
        {
            "id": 3,
            "title": "Garbage not collected",
            "content": "Garbage piling up in our area",
            "media_urls": [
                "https://example.com/garbage1.jpg",
                "https://example.com/garbage2.jpg"
            ],
            "vote_count": 50,
            "status": "SOLVED",
            "created_at": "2024-01-10T14:20:00Z",
            "has_user_voted": false,
            "can_user_vote": false,
            "username": "localvoice"
        }
    ],
    "page": {
        "totalPages": 5,
        "totalElements": 100,
        "size": 20,
        "number": 0
    }
}